0E138DEEBAD7FDFA55AEE8AC9889D7D8.cache.js
user.agent ie10

4506E6D919A25C803EE51C5BE958F555.cache.js
user.agent safari

B91DC54196C5667EE7176DCEDA3683E6.cache.js
user.agent gecko1_8

C85372AD550292DFDD1E22AD1A9DDD97.cache.js
user.agent ie8

D290DF022838D04DAE330782639EEE4A.cache.js
user.agent ie9

Devmode:devmode.js